KC705_WITH_DRAM/ip/.Xil/Vivado-5439-ajit7/hw_ila_data_1/zip_work/waveform.vcd
$date
        2022-Apr-14 20:41:27
$end
$version
        Vivado v2017.1 (64-bit)
$end
$timescale
        1ps
$end
$scope module dut $end
$var reg 36 " high_add [35:0] $end
$var reg 4 F dram_debug [3:0] $end
$var reg 65 J response_received [64:0] $end
$var reg 4 -" flash_debug [3:0] $end
$var reg 1 1" init $end
$var reg 4 2" cdebug [3:0] $end
$var reg 4 6" ddebug [3:0] $end
$var reg 4 :" tgen_debug [3:0] $end
$var reg 36 >" low_add [35:0] $end
$var reg 5 b" rdebug [4:0] $end
$var reg 1 g" _TRIGGER $end
$var reg 1 h" _WINDOW $end
$var reg 1 i" _GAP $end
$upscope $end
$enddefinitions $end
#0
$dumpvars
b1000000000000000000000000011000 "
b100 F
b0 J
b1111 -"
11"
b101 2"
b101 6"
b1111 :"
b1000000000000000000000000011000 >"
b1000 b"
1g"
1h"
0i"
$end
#1
b1000000000000000000000000100000 "
b1000000000000000000000000100000 >"
#2
b1000000000000000000000000101000 "
b1000000000000000000000000101000 >"
#3
b1000000000000000000000000110000 "
b1000000000000000000000000110000 >"
#4
b1000000000000000000000000111000 "
b1000000000000000000000000111000 >"
#5
b1000000000000000000000001000000 "
b1000000000000000000000001000000 >"
#6
b1000000000000000000000001001000 "
b100 2"
b1000000000000000000000001001000 >"
#7
b1000000000000000000000000001000 "
b1000000000000000000000000001000 >"
#8
b1000000000000000000000000010000 "
b101 2"
b1000000000000000000000000010000 >"
#9
b1000000000000000000000000011000 "
b1 J
b1000000000000000000000000011000 >"
#10
b1000000000000000000000000100000 "
b10 J
b1000000000000000000000000100000 >"
#11
b1000000000000000000000000101000 "
b11 J
b1000000000000000000000000101000 >"
#12
b1000000000000000000000000110000 "
b100 J
b1000000000000000000000000110000 >"
#13
b1000000000000000000000000111000 "
b101 J
b1000000000000000000000000111000 >"
#14
b1000000000000000000000001000000 "
b110 J
b1000000000000000000000001000000 >"
#15
b1000000000000000000000001001000 "
b111 J
b1000000000000000000000001001000 >"
#16
b1000000000000000000000000001000 "
b1000 J
b1000000000000000000000000001000 >"
#17
b1000000000000000000000000010000 "
b1001 J
b1000000000000000000000000010000 >"
#18
b1000000000000000000000000011000 "
b0 J
b1000000000000000000000000011000 >"
#19
b1000000000000000000000000100000 "
b1000000000000000000000000100000 >"
#20
b1000000000000000000000000101000 "
b1000000000000000000000000101000 >"
#21
b1000000000000000000000000110000 "
b1000000000000000000000000110000 >"
#22
b1000000000000000000000000111000 "
b1000000000000000000000000111000 >"
#23
b1000000000000000000000001000000 "
b1000000000000000000000001000000 >"
#24
b1000000000000000000000001001000 "
b1000000000000000000000001001000 >"
#25
b1000000000000000000000000001000 "
b1000000000000000000000000001000 >"
#26
b1000000000000000000000000010000 "
b1000000000000000000000000010000 >"
#27
b1000000000000000000000000011000 "
b1 J
b1000000000000000000000000011000 >"
#28
b1000000000000000000000000100000 "
b10 J
b1000000000000000000000000100000 >"
#29
b1000000000000000000000000101000 "
b11 J
b1000000000000000000000000101000 >"
#30
b1000000000000000000000000110000 "
b100 J
b1000000000000000000000000110000 >"
#31
b1000000000000000000000000111000 "
b101 J
b1000000000000000000000000111000 >"
#32
b1000000000000000000000001000000 "
b110 J
b1000000000000000000000001000000 >"
#33
b1000000000000000000000001001000 "
b111 J
b1000000000000000000000001001000 >"
#34
b1000000000000000000000000001000 "
b1000 J
b1000000000000000000000000001000 >"
#35
b1000000000000000000000000010000 "
b1001 J
b1000000000000000000000000010000 >"
#36
b1000000000000000000000000011000 "
b0 J
b1000000000000000000000000011000 >"
#37
b1000000000000000000000000100000 "
b1000000000000000000000000100000 >"
#38
b1000000000000000000000000101000 "
b1000000000000000000000000101000 >"
#39
b1000000000000000000000000110000 "
b1000000000000000000000000110000 >"
#40
b1000000000000000000000000111000 "
b1000000000000000000000000111000 >"
#41
b1000000000000000000000001000000 "
b1000000000000000000000001000000 >"
#42
b1000000000000000000000001001000 "
b1000000000000000000000001001000 >"
#43
b1000000000000000000000000001000 "
b1000000000000000000000000001000 >"
#44
b1000000000000000000000000010000 "
b1000000000000000000000000010000 >"
#45
b1000000000000000000000000011000 "
b1 J
b1000000000000000000000000011000 >"
#46
b1000000000000000000000000100000 "
b10 J
b1000000000000000000000000100000 >"
#47
b1000000000000000000000000101000 "
b11 J
b1000000000000000000000000101000 >"
#48
b1000000000000000000000000110000 "
b100 J
b1000000000000000000000000110000 >"
#49
b1000000000000000000000000111000 "
b101 J
b1000000000000000000000000111000 >"
#50
b1000000000000000000000001000000 "
b110 J
b1000000000000000000000001000000 >"
#51
b1000000000000000000000001001000 "
b111 J
b1000000000000000000000001001000 >"
#52
b1000000000000000000000000001000 "
b1000 J
b1000000000000000000000000001000 >"
#53
b1000000000000000000000000010000 "
b1001 J
b1000000000000000000000000010000 >"
#54
b1000000000000000000000000011000 "
b0 J
b1000000000000000000000000011000 >"
#55
b1000000000000000000000000100000 "
b1000000000000000000000000100000 >"
#56
b1000000000000000000000000101000 "
b1000000000000000000000000101000 >"
#57
b1000000000000000000000000110000 "
b1000000000000000000000000110000 >"
#58
b1000000000000000000000000111000 "
b1000000000000000000000000111000 >"
#59
b1000000000000000000000001000000 "
b1000000000000000000000001000000 >"
#60
b1000000000000000000000001001000 "
b1000000000000000000000001001000 >"
#61
b1000000000000000000000000001000 "
b1000000000000000000000000001000 >"
#62
b1000000000000000000000000010000 "
b1000000000000000000000000010000 >"
#63
b1000000000000000000000000011000 "
b1 J
b1000000000000000000000000011000 >"
#64
b1000000000000000000000000100000 "
b10 J
b1000000000000000000000000100000 >"
#65
b1000000000000000000000000101000 "
b11 J
b1000000000000000000000000101000 >"
#66
b1000000000000000000000000110000 "
b100 J
b1000000000000000000000000110000 >"
#67
b1000000000000000000000000111000 "
b101 J
b1000000000000000000000000111000 >"
#68
b1000000000000000000000001000000 "
b110 J
b1000000000000000000000001000000 >"
#69
b1000000000000000000000001001000 "
b111 J
b1000000000000000000000001001000 >"
#70
b1000000000000000000000000001000 "
b1000 J
b1000000000000000000000000001000 >"
#71
b1000000000000000000000000010000 "
b1001 J
b1000000000000000000000000010000 >"
#72
b1000000000000000000000000011000 "
b0 J
b1000000000000000000000000011000 >"
#73
b1000000000000000000000000100000 "
b1000000000000000000000000100000 >"
#74
b1000000000000000000000000101000 "
b1000000000000000000000000101000 >"
#75
b1000000000000000000000000110000 "
b1000000000000000000000000110000 >"
#76
b1000000000000000000000000111000 "
b1000000000000000000000000111000 >"
#77
b1000000000000000000000001000000 "
b1000000000000000000000001000000 >"
#78
b1000000000000000000000001001000 "
b1000000000000000000000001001000 >"
#79
b1000000000000000000000000001000 "
b1000000000000000000000000001000 >"
#80
b1000000000000000000000000010000 "
b1000000000000000000000000010000 >"
#81
b1000000000000000000000000011000 "
b1 J
b1000000000000000000000000011000 >"
#82
b1000000000000000000000000100000 "
b10 J
b1000000000000000000000000100000 >"
#83
b1000000000000000000000000101000 "
b11 J
b1000000000000000000000000101000 >"
#84
b1000000000000000000000000110000 "
b100 J
b1000000000000000000000000110000 >"
#85
b1000000000000000000000000111000 "
b101 J
b1000000000000000000000000111000 >"
#86
b1000000000000000000000001000000 "
b110 J
b100 2"
b1000000000000000000000001000000 >"
#87
b1000000000000000000000001001000 "
b111 J
b1000000000000000000000001001000 >"
#88
b1000000000000000000000000001000 "
b1000 J
b101 2"
b1000000000000000000000000001000 >"
#89
b1000000000000000000000000010000 "
b1001 J
b1000000000000000000000000010000 >"
#90
b1000000000000000000000000011000 "
b0 J
b1000000000000000000000000011000 >"
#91
b1000000000000000000000000100000 "
b1000000000000000000000000100000 >"
#92
b1000000000000000000000000101000 "
b1000000000000000000000000101000 >"
#93
b1000000000000000000000000110000 "
b1000000000000000000000000110000 >"
#94
b1000000000000000000000000111000 "
b1000000000000000000000000111000 >"
#95
b1000000000000000000000001000000 "
b1000000000000000000000001000000 >"
#96
b1000000000000000000000001001000 "
b1000000000000000000000001001000 >"
#97
b1000000000000000000000000001000 "
b1000000000000000000000000001000 >"
#98
b1000000000000000000000000010000 "
b1000000000000000000000000010000 >"
#99
b1000000000000000000000000011000 "
b1 J
b1000000000000000000000000011000 >"
#100
b1000000000000000000000000100000 "
b10 J
b1000000000000000000000000100000 >"
#101
b1000000000000000000000000101000 "
b11 J
b1000000000000000000000000101000 >"
#102
b1000000000000000000000000110000 "
b100 J
b1000000000000000000000000110000 >"
#103
b1000000000000000000000000111000 "
b101 J
b1000000000000000000000000111000 >"
#104
b1000000000000000000000001000000 "
b110 J
b1000000000000000000000001000000 >"
#105
b1000000000000000000000001001000 "
b111 J
b1000000000000000000000001001000 >"
#106
b1000000000000000000000000001000 "
b1000 J
b1000000000000000000000000001000 >"
#107
b1000000000000000000000000010000 "
b1001 J
b1000000000000000000000000010000 >"
#108
b1000000000000000000000000011000 "
b0 J
b1000000000000000000000000011000 >"
#109
b1000000000000000000000000100000 "
b1000000000000000000000000100000 >"
#110
b1000000000000000000000000101000 "
b1000000000000000000000000101000 >"
#111
b1000000000000000000000000110000 "
b1000000000000000000000000110000 >"
#112
b1000000000000000000000000111000 "
b1000000000000000000000000111000 >"
#113
b1000000000000000000000001000000 "
b1000000000000000000000001000000 >"
#114
b1000000000000000000000001001000 "
b1000000000000000000000001001000 >"
#115
b1000000000000000000000000001000 "
b1000000000000000000000000001000 >"
#116
b1000000000000000000000000010000 "
b1000000000000000000000000010000 >"
#117
b1000000000000000000000000011000 "
b1 J
b1000000000000000000000000011000 >"
#118
b1000000000000000000000000100000 "
b10 J
b1000000000000000000000000100000 >"
#119
b1000000000000000000000000101000 "
b11 J
b1000000000000000000000000101000 >"
#120
b1000000000000000000000000110000 "
b100 J
b1000000000000000000000000110000 >"
#121
b1000000000000000000000000111000 "
b101 J
b1000000000000000000000000111000 >"
#122
b1000000000000000000000001000000 "
b110 J
b1000000000000000000000001000000 >"
#123
b1000000000000000000000001001000 "
b111 J
b1000000000000000000000001001000 >"
#124
b1000000000000000000000000001000 "
b1000 J
b1000000000000000000000000001000 >"
#125
b1000000000000000000000000010000 "
b1001 J
b1000000000000000000000000010000 >"
#126
b1000000000000000000000000011000 "
b0 J
b1000000000000000000000000011000 >"
#127
b1000000000000000000000000100000 "
b1000000000000000000000000100000 >"
#128
b1000000000000000000000000101000 "
b1000000000000000000000000101000 >"
#129
b1000000000000000000000000110000 "
b1000000000000000000000000110000 >"
#130
b1000000000000000000000000111000 "
b1000000000000000000000000111000 >"
#131
b1000000000000000000000001000000 "
b1000000000000000000000001000000 >"
#132
b1000000000000000000000001001000 "
b1000000000000000000000001001000 >"
#133
b1000000000000000000000000001000 "
b1000000000000000000000000001000 >"
#134
b1000000000000000000000000010000 "
b1000000000000000000000000010000 >"
#135
b1000000000000000000000000011000 "
b1 J
b1000000000000000000000000011000 >"
#136
b1000000000000000000000000100000 "
b10 J
b1000000000000000000000000100000 >"
#137
b1000000000000000000000000101000 "
b11 J
b1000000000000000000000000101000 >"
#138
b1000000000000000000000000110000 "
b100 J
b1000000000000000000000000110000 >"
#139
b1000000000000000000000000111000 "
b101 J
b1000000000000000000000000111000 >"
#140
b1000000000000000000000001000000 "
b110 J
b1000000000000000000000001000000 >"
#141
b1000000000000000000000001001000 "
b111 J
b1000000000000000000000001001000 >"
#142
b1000000000000000000000000001000 "
b1000 J
b1000000000000000000000000001000 >"
#143
b1000000000000000000000000010000 "
b1001 J
b1000000000000000000000000010000 >"
#144
b1000000000000000000000000011000 "
b0 J
b1000000000000000000000000011000 >"
#145
b1000000000000000000000000100000 "
b1000000000000000000000000100000 >"
#146
b1000000000000000000000000101000 "
b1000000000000000000000000101000 >"
#147
b1000000000000000000000000110000 "
b1000000000000000000000000110000 >"
#148
b1000000000000000000000000111000 "
b1000000000000000000000000111000 >"
#149
b1000000000000000000000001000000 "
b1000000000000000000000001000000 >"
#150
b1000000000000000000000001001000 "
b1000000000000000000000001001000 >"
#151
b1000000000000000000000000001000 "
b1000000000000000000000000001000 >"
#152
b1000000000000000000000000010000 "
b1000000000000000000000000010000 >"
#153
b1000000000000000000000000011000 "
b1 J
b1000000000000000000000000011000 >"
#154
b1000000000000000000000000100000 "
b10 J
b1000000000000000000000000100000 >"
#155
b1000000000000000000000000101000 "
b11 J
b1000000000000000000000000101000 >"
#156
b1000000000000000000000000110000 "
b100 J
b1000000000000000000000000110000 >"
#157
b1000000000000000000000000111000 "
b101 J
b1000000000000000000000000111000 >"
#158
b1000000000000000000000001000000 "
b110 J
b1000000000000000000000001000000 >"
#159
b1000000000000000000000001001000 "
b111 J
b1000000000000000000000001001000 >"
#160
b1000000000000000000000000001000 "
b1000 J
b1000000000000000000000000001000 >"
#161
b1000000000000000000000000010000 "
b1001 J
b1000000000000000000000000010000 >"
#162
b1000000000000000000000000011000 "
b0 J
b1000000000000000000000000011000 >"
#163
b1000000000000000000000000100000 "
b1000000000000000000000000100000 >"
#164
b1000000000000000000000000101000 "
b1000000000000000000000000101000 >"
#165
b1000000000000000000000000110000 "
b1000000000000000000000000110000 >"
#166
b1000000000000000000000000111000 "
b100 2"
b1000000000000000000000000111000 >"
#167
b1000000000000000000000001000000 "
b1000000000000000000000001000000 >"
#168
b1000000000000000000000001001000 "
b101 2"
b1000000000000000000000001001000 >"
#169
b1000000000000000000000000001000 "
b1000000000000000000000000001000 >"
#170
b1000000000000000000000000010000 "
b1000000000000000000000000010000 >"
#171
b1000000000000000000000000011000 "
b1 J
b1000000000000000000000000011000 >"
#172
b1000000000000000000000000100000 "
b10 J
b1000000000000000000000000100000 >"
#173
b1000000000000000000000000101000 "
b11 J
b1000000000000000000000000101000 >"
#174
b1000000000000000000000000110000 "
b100 J
b1000000000000000000000000110000 >"
#175
b1000000000000000000000000111000 "
b101 J
b1000000000000000000000000111000 >"
#176
b1000000000000000000000001000000 "
b110 J
b1000000000000000000000001000000 >"
#177
b1000000000000000000000001001000 "
b111 J
b1000000000000000000000001001000 >"
#178
b1000000000000000000000000001000 "
b1000 J
b1000000000000000000000000001000 >"
#179
b1000000000000000000000000010000 "
b1001 J
b1000000000000000000000000010000 >"
#180
b1000000000000000000000000011000 "
b0 J
b1000000000000000000000000011000 >"
#181
b1000000000000000000000000100000 "
b1000000000000000000000000100000 >"
#182
b1000000000000000000000000101000 "
b1000000000000000000000000101000 >"
#183
b1000000000000000000000000110000 "
b1000000000000000000000000110000 >"
#184
b1000000000000000000000000111000 "
b1000000000000000000000000111000 >"
#185
b1000000000000000000000001000000 "
b1000000000000000000000001000000 >"
#186
b1000000000000000000000001001000 "
b1000000000000000000000001001000 >"
#187
b1000000000000000000000000001000 "
b1000000000000000000000000001000 >"
#188
b1000000000000000000000000010000 "
b1000000000000000000000000010000 >"
#189
b1000000000000000000000000011000 "
b1 J
b1000000000000000000000000011000 >"
#190
b1000000000000000000000000100000 "
b10 J
b1000000000000000000000000100000 >"
#191
b1000000000000000000000000101000 "
b11 J
b1000000000000000000000000101000 >"
#192
b1000000000000000000000000110000 "
b100 J
b1000000000000000000000000110000 >"
#193
b1000000000000000000000000111000 "
b101 J
b1000000000000000000000000111000 >"
#194
b1000000000000000000000001000000 "
b110 J
b1000000000000000000000001000000 >"
#195
b1000000000000000000000001001000 "
b111 J
b1000000000000000000000001001000 >"
#196
b1000000000000000000000000001000 "
b1000 J
b1000000000000000000000000001000 >"
#197
b1000000000000000000000000010000 "
b1001 J
b1000000000000000000000000010000 >"
#198
b1000000000000000000000000011000 "
b0 J
b1000000000000000000000000011000 >"
#199
b1000000000000000000000000100000 "
b1000000000000000000000000100000 >"
#200
b1000000000000000000000000101000 "
b1000000000000000000000000101000 >"
#201
b1000000000000000000000000110000 "
b1000000000000000000000000110000 >"
#202
b1000000000000000000000000111000 "
b1000000000000000000000000111000 >"
#203
b1000000000000000000000001000000 "
b1000000000000000000000001000000 >"
#204
b1000000000000000000000001001000 "
b1000000000000000000000001001000 >"
#205
b1000000000000000000000000001000 "
b1000000000000000000000000001000 >"
#206
b1000000000000000000000000010000 "
b1000000000000000000000000010000 >"
#207
b1000000000000000000000000011000 "
b1 J
b1000000000000000000000000011000 >"
#208
b1000000000000000000000000100000 "
b10 J
b1000000000000000000000000100000 >"
#209
b1000000000000000000000000101000 "
b11 J
b1000000000000000000000000101000 >"
#210
b1000000000000000000000000110000 "
b100 J
b1000000000000000000000000110000 >"
#211
b1000000000000000000000000111000 "
b101 J
b1000000000000000000000000111000 >"
#212
b1000000000000000000000001000000 "
b110 J
b1000000000000000000000001000000 >"
#213
b1000000000000000000000001001000 "
b111 J
b1000000000000000000000001001000 >"
#214
b1000000000000000000000000001000 "
b1000 J
b1000000000000000000000000001000 >"
#215
b1000000000000000000000000010000 "
b1001 J
b1000000000000000000000000010000 >"
#216
b1000000000000000000000000011000 "
b0 J
b1000000000000000000000000011000 >"
#217
b1000000000000000000000000100000 "
b1000000000000000000000000100000 >"
#218
b1000000000000000000000000101000 "
b1000000000000000000000000101000 >"
#219
b1000000000000000000000000110000 "
b1000000000000000000000000110000 >"
#220
b1000000000000000000000000111000 "
b1000000000000000000000000111000 >"
#221
b1000000000000000000000001000000 "
b1000000000000000000000001000000 >"
#222
b1000000000000000000000001001000 "
b1000000000000000000000001001000 >"
#223
b1000000000000000000000000001000 "
b1000000000000000000000000001000 >"
#224
b1000000000000000000000000010000 "
b1000000000000000000000000010000 >"
#225
b1000000000000000000000000011000 "
b1 J
b1000000000000000000000000011000 >"
#226
b1000000000000000000000000100000 "
b10 J
b1000000000000000000000000100000 >"
#227
b1000000000000000000000000101000 "
b11 J
b1000000000000000000000000101000 >"
#228
b1000000000000000000000000110000 "
b100 J
b1000000000000000000000000110000 >"
#229
b1000000000000000000000000111000 "
b101 J
b1000000000000000000000000111000 >"
#230
b1000000000000000000000001000000 "
b110 J
b1000000000000000000000001000000 >"
#231
b1000000000000000000000001001000 "
b111 J
b1000000000000000000000001001000 >"
#232
b1000000000000000000000000001000 "
b1000 J
b1000000000000000000000000001000 >"
#233
b1000000000000000000000000010000 "
b1001 J
b1000000000000000000000000010000 >"
#234
b1000000000000000000000000011000 "
b0 J
b1000000000000000000000000011000 >"
#235
b1000000000000000000000000100000 "
b1000000000000000000000000100000 >"
#236
b1000000000000000000000000101000 "
b1000000000000000000000000101000 >"
#237
b1000000000000000000000000110000 "
b1000000000000000000000000110000 >"
#238
b1000000000000000000000000111000 "
b1000000000000000000000000111000 >"
#239
b1000000000000000000000001000000 "
b1000000000000000000000001000000 >"
#240
b1000000000000000000000001001000 "
b1000000000000000000000001001000 >"
#241
b1000000000000000000000000001000 "
b1000000000000000000000000001000 >"
#242
b1000000000000000000000000010000 "
b1000000000000000000000000010000 >"
#243
b1000000000000000000000000011000 "
b1 J
b1000000000000000000000000011000 >"
#244
b1000000000000000000000000100000 "
b10 J
b1000000000000000000000000100000 >"
#245
b1000000000000000000000000101000 "
b11 J
b1000000000000000000000000101000 >"
#246
b1000000000000000000000000110000 "
b100 J
b100 2"
b1000000000000000000000000110000 >"
#247
b1000000000000000000000000111000 "
b101 J
b1000000000000000000000000111000 >"
#248
b1000000000000000000000001000000 "
b110 J
b101 2"
b1000000000000000000000001000000 >"
#249
b1000000000000000000000001001000 "
b111 J
b1000000000000000000000001001000 >"
#250
b1000000000000000000000000001000 "
b1000 J
b1000000000000000000000000001000 >"
#251
b1000000000000000000000000010000 "
b1001 J
b1000000000000000000000000010000 >"
#252
b1000000000000000000000000011000 "
b0 J
b1000000000000000000000000011000 >"
#253
b1000000000000000000000000100000 "
b1000000000000000000000000100000 >"
#254
b1000000000000000000000000101000 "
b1000000000000000000000000101000 >"
#255
b1000000000000000000000000110000 "
b1000000000000000000000000110000 >"
#256
b1000000000000000000000000111000 "
b1000000000000000000000000111000 >"
#257
b1000000000000000000000001000000 "
b1000000000000000000000001000000 >"
#258
b1000000000000000000000001001000 "
b1000000000000000000000001001000 >"
#259
b1000000000000000000000000001000 "
b1000000000000000000000000001000 >"
#260
b1000000000000000000000000010000 "
b1000000000000000000000000010000 >"
#261
b1000000000000000000000000011000 "
b1 J
b1000000000000000000000000011000 >"
#262
b1000000000000000000000000100000 "
b10 J
b1000000000000000000000000100000 >"
#263
b1000000000000000000000000101000 "
b11 J
b1000000000000000000000000101000 >"
#264
b1000000000000000000000000110000 "
b100 J
b1000000000000000000000000110000 >"
#265
b1000000000000000000000000111000 "
b101 J
b1000000000000000000000000111000 >"
#266
b1000000000000000000000001000000 "
b110 J
b1000000000000000000000001000000 >"
#267
b1000000000000000000000001001000 "
b111 J
b1000000000000000000000001001000 >"
#268
b1000000000000000000000000001000 "
b1000 J
b1000000000000000000000000001000 >"
#269
b1000000000000000000000000010000 "
b1001 J
b1000000000000000000000000010000 >"
#270
b1000000000000000000000000011000 "
b0 J
b1000000000000000000000000011000 >"
#271
b1000000000000000000000000100000 "
b1000000000000000000000000100000 >"
#272
b1000000000000000000000000101000 "
b1000000000000000000000000101000 >"
#273
b1000000000000000000000000110000 "
b1000000000000000000000000110000 >"
#274
b1000000000000000000000000111000 "
b1000000000000000000000000111000 >"
#275
b1000000000000000000000001000000 "
b1000000000000000000000001000000 >"
#276
b1000000000000000000000001001000 "
b1000000000000000000000001001000 >"
#277
b1000000000000000000000000001000 "
b1000000000000000000000000001000 >"
#278
b1000000000000000000000000010000 "
b1000000000000000000000000010000 >"
#279
b1000000000000000000000000011000 "
b1 J
b1000000000000000000000000011000 >"
#280
b1000000000000000000000000100000 "
b10 J
b1000000000000000000000000100000 >"
#281
b1000000000000000000000000101000 "
b11 J
b1000000000000000000000000101000 >"
#282
b1000000000000000000000000110000 "
b100 J
b1000000000000000000000000110000 >"
#283
b1000000000000000000000000111000 "
b101 J
b1000000000000000000000000111000 >"
#284
b1000000000000000000000001000000 "
b110 J
b1000000000000000000000001000000 >"
#285
b1000000000000000000000001001000 "
b111 J
b1000000000000000000000001001000 >"
#286
b1000000000000000000000000001000 "
b1000 J
b1000000000000000000000000001000 >"
#287
b1000000000000000000000000010000 "
b1001 J
b1000000000000000000000000010000 >"
#288
b1000000000000000000000000011000 "
b0 J
b1000000000000000000000000011000 >"
#289
b1000000000000000000000000100000 "
b1000000000000000000000000100000 >"
#290
b1000000000000000000000000101000 "
b1000000000000000000000000101000 >"
#291
b1000000000000000000000000110000 "
b1000000000000000000000000110000 >"
#292
b1000000000000000000000000111000 "
b1000000000000000000000000111000 >"
#293
b1000000000000000000000001000000 "
b1000000000000000000000001000000 >"
#294
b1000000000000000000000001001000 "
b1000000000000000000000001001000 >"
#295
b1000000000000000000000000001000 "
b1000000000000000000000000001000 >"
#296
b1000000000000000000000000010000 "
b1000000000000000000000000010000 >"
#297
b1000000000000000000000000011000 "
b1 J
b1000000000000000000000000011000 >"
#298
b1000000000000000000000000100000 "
b10 J
b1000000000000000000000000100000 >"
#299
b1000000000000000000000000101000 "
b11 J
b1000000000000000000000000101000 >"
#300
b1000000000000000000000000110000 "
b100 J
b1000000000000000000000000110000 >"
#301
b1000000000000000000000000111000 "
b101 J
b1000000000000000000000000111000 >"
#302
b1000000000000000000000001000000 "
b110 J
b1000000000000000000000001000000 >"
#303
b1000000000000000000000001001000 "
b111 J
b1000000000000000000000001001000 >"
#304
b1000000000000000000000000001000 "
b1000 J
b1000000000000000000000000001000 >"
#305
b1000000000000000000000000010000 "
b1001 J
b1000000000000000000000000010000 >"
#306
b1000000000000000000000000011000 "
b0 J
b1000000000000000000000000011000 >"
#307
b1000000000000000000000000100000 "
b1000000000000000000000000100000 >"
#308
b1000000000000000000000000101000 "
b1000000000000000000000000101000 >"
#309
b1000000000000000000000000110000 "
b1000000000000000000000000110000 >"
#310
b1000000000000000000000000111000 "
b1000000000000000000000000111000 >"
#311
b1000000000000000000000001000000 "
b1000000000000000000000001000000 >"
#312
b1000000000000000000000001001000 "
b1000000000000000000000001001000 >"
#313
b1000000000000000000000000001000 "
b1000000000000000000000000001000 >"
#314
b1000000000000000000000000010000 "
b1000000000000000000000000010000 >"
#315
b1000000000000000000000000011000 "
b1 J
b1000000000000000000000000011000 >"
#316
b1000000000000000000000000100000 "
b10 J
b1000000000000000000000000100000 >"
#317
b1000000000000000000000000101000 "
b11 J
b1000000000000000000000000101000 >"
#318
b1000000000000000000000000110000 "
b100 J
b1000000000000000000000000110000 >"
#319
b1000000000000000000000000111000 "
b101 J
b1000000000000000000000000111000 >"
#320
b1000000000000000000000001000000 "
b110 J
b1000000000000000000000001000000 >"
#321
b1000000000000000000000001001000 "
b111 J
b1000000000000000000000001001000 >"
#322
b1000000000000000000000000001000 "
b1000 J
b1000000000000000000000000001000 >"
#323
b1000000000000000000000000010000 "
b1001 J
b1000000000000000000000000010000 >"
#324
b1000000000000000000000000011000 "
b0 J
b1000000000000000000000000011000 >"
#325
b1000000000000000000000000100000 "
b1000000000000000000000000100000 >"
#326
b1000000000000000000000000101000 "
b100 2"
b1000000000000000000000000101000 >"
#327
b1000000000000000000000000110000 "
b1000000000000000000000000110000 >"
#328
b1000000000000000000000000111000 "
b101 2"
b1000000000000000000000000111000 >"
#329
b1000000000000000000000001000000 "
b1000000000000000000000001000000 >"
#330
b1000000000000000000000001001000 "
b1000000000000000000000001001000 >"
#331
b1000000000000000000000000001000 "
b1000000000000000000000000001000 >"
#332
b1000000000000000000000000010000 "
b1000000000000000000000000010000 >"
#333
b1000000000000000000000000011000 "
b1 J
b1000000000000000000000000011000 >"
#334
b1000000000000000000000000100000 "
b10 J
b1000000000000000000000000100000 >"
#335
b1000000000000000000000000101000 "
b11 J
b1000000000000000000000000101000 >"
#336
b1000000000000000000000000110000 "
b100 J
b1000000000000000000000000110000 >"
#337
b1000000000000000000000000111000 "
b101 J
b1000000000000000000000000111000 >"
#338
b1000000000000000000000001000000 "
b110 J
b1000000000000000000000001000000 >"
#339
b1000000000000000000000001001000 "
b111 J
b1000000000000000000000001001000 >"
#340
b1000000000000000000000000001000 "
b1000 J
b1000000000000000000000000001000 >"
#341
b1000000000000000000000000010000 "
b1001 J
b1000000000000000000000000010000 >"
#342
b1000000000000000000000000011000 "
b0 J
b1000000000000000000000000011000 >"
#343
b1000000000000000000000000100000 "
b1000000000000000000000000100000 >"
#344
b1000000000000000000000000101000 "
b1000000000000000000000000101000 >"
#345
b1000000000000000000000000110000 "
b1000000000000000000000000110000 >"
#346
b1000000000000000000000000111000 "
b1000000000000000000000000111000 >"
#347
b1000000000000000000000001000000 "
b1000000000000000000000001000000 >"
#348
b1000000000000000000000001001000 "
b1000000000000000000000001001000 >"
#349
b1000000000000000000000000001000 "
b1000000000000000000000000001000 >"
#350
b1000000000000000000000000010000 "
b1000000000000000000000000010000 >"
#351
b1000000000000000000000000011000 "
b1 J
b1000000000000000000000000011000 >"
#352
b1000000000000000000000000100000 "
b10 J
b1000000000000000000000000100000 >"
#353
b1000000000000000000000000101000 "
b11 J
b1000000000000000000000000101000 >"
#354
b1000000000000000000000000110000 "
b100 J
b1000000000000000000000000110000 >"
#355
b1000000000000000000000000111000 "
b101 J
b1000000000000000000000000111000 >"
#356
b1000000000000000000000001000000 "
b110 J
b1000000000000000000000001000000 >"
#357
b1000000000000000000000001001000 "
b111 J
b1000000000000000000000001001000 >"
#358
b1000000000000000000000000001000 "
b1000 J
b1000000000000000000000000001000 >"
#359
b1000000000000000000000000010000 "
b1001 J
b1000000000000000000000000010000 >"
#360
b1000000000000000000000000011000 "
b0 J
b1000000000000000000000000011000 >"
#361
b1000000000000000000000000100000 "
b1000000000000000000000000100000 >"
#362
b1000000000000000000000000101000 "
b1000000000000000000000000101000 >"
#363
b1000000000000000000000000110000 "
b1000000000000000000000000110000 >"
#364
b1000000000000000000000000111000 "
b1000000000000000000000000111000 >"
#365
b1000000000000000000000001000000 "
b1000000000000000000000001000000 >"
#366
b1000000000000000000000001001000 "
b1000000000000000000000001001000 >"
#367
b1000000000000000000000000001000 "
b1000000000000000000000000001000 >"
#368
b1000000000000000000000000010000 "
b1000000000000000000000000010000 >"
#369
b1000000000000000000000000011000 "
b1 J
b1000000000000000000000000011000 >"
#370
b1000000000000000000000000100000 "
b10 J
b1000000000000000000000000100000 >"
#371
b1000000000000000000000000101000 "
b11 J
b1000000000000000000000000101000 >"
#372
b1000000000000000000000000110000 "
b100 J
b1000000000000000000000000110000 >"
#373
b1000000000000000000000000111000 "
b101 J
b1000000000000000000000000111000 >"
#374
b1000000000000000000000001000000 "
b110 J
b1000000000000000000000001000000 >"
#375
b1000000000000000000000001001000 "
b111 J
b1000000000000000000000001001000 >"
#376
b1000000000000000000000000001000 "
b1000 J
b1000000000000000000000000001000 >"
#377
b1000000000000000000000000010000 "
b1001 J
b1000000000000000000000000010000 >"
#378
b1000000000000000000000000011000 "
b0 J
b1000000000000000000000000011000 >"
#379
b1000000000000000000000000100000 "
b1000000000000000000000000100000 >"
#380
b1000000000000000000000000101000 "
b1000000000000000000000000101000 >"
#381
b1000000000000000000000000110000 "
b1000000000000000000000000110000 >"
#382
b1000000000000000000000000111000 "
b1000000000000000000000000111000 >"
#383
b1000000000000000000000001000000 "
b1000000000000000000000001000000 >"
#384
b1000000000000000000000001001000 "
b1000000000000000000000001001000 >"
#385
b1000000000000000000000000001000 "
b1000000000000000000000000001000 >"
#386
b1000000000000000000000000010000 "
b1000000000000000000000000010000 >"
#387
b1000000000000000000000000011000 "
b1 J
b1000000000000000000000000011000 >"
#388
b1000000000000000000000000100000 "
b10 J
b1000000000000000000000000100000 >"
#389
b1000000000000000000000000101000 "
b11 J
b1000000000000000000000000101000 >"
#390
b1000000000000000000000000110000 "
b100 J
b1000000000000000000000000110000 >"
#391
b1000000000000000000000000111000 "
b101 J
b1000000000000000000000000111000 >"
